\relax 
\@writefile{toc}{\contentsline {section}{\numberline {1}Exercise 1}{1}}
\@writefile{toc}{\contentsline {section}{\numberline {2}Exercise 2}{1}}
\@writefile{toc}{\contentsline {subsection}{\numberline {2.1}a}{1}}
\@writefile{toc}{\contentsline {subsection}{\numberline {2.2}b}{1}}
\@writefile{toc}{\contentsline {subsection}{\numberline {2.3}c}{1}}
\@writefile{toc}{\contentsline {subsection}{\numberline {2.4}d}{1}}
\@writefile{toc}{\contentsline {subsection}{\numberline {2.5}e}{1}}
\@writefile{toc}{\contentsline {subsection}{\numberline {2.6}f}{1}}
\@writefile{toc}{\contentsline {section}{\numberline {3}Exercise 3}{1}}
\@writefile{toc}{\contentsline {subsection}{\numberline {3.1}a}{1}}
\@writefile{toc}{\contentsline {subsection}{\numberline {3.2}b}{2}}
\@writefile{toc}{\contentsline {section}{\numberline {4}Exercise 4}{2}}
\@writefile{lol}{\contentsline {lstlisting}{psroot.awk}{2}}
\@writefile{toc}{\contentsline {section}{\numberline {5}Exercise 5}{2}}
\@writefile{toc}{\contentsline {subsection}{\numberline {5.1}a}{2}}
\@writefile{toc}{\contentsline {subsection}{\numberline {5.2}b}{2}}
\@writefile{lol}{\contentsline {lstlisting}{quad.awk}{2}}
