\relax 
\@writefile{toc}{\contentsline {section}{\numberline {1}NOTE}{1}}
\@writefile{toc}{\contentsline {section}{\numberline {2}Exercise 1}{1}}
\@writefile{toc}{\contentsline {section}{\numberline {3}Exercise 2}{1}}
\@writefile{toc}{\contentsline {subsection}{\numberline {3.1}a}{1}}
\@writefile{toc}{\contentsline {subsection}{\numberline {3.2}b}{1}}
\@writefile{toc}{\contentsline {subsection}{\numberline {3.3}c}{1}}
\@writefile{toc}{\contentsline {subsection}{\numberline {3.4}d}{2}}
\@writefile{toc}{\contentsline {subsection}{\numberline {3.5}e}{2}}
\@writefile{toc}{\contentsline {subsection}{\numberline {3.6}f}{2}}
\@writefile{toc}{\contentsline {section}{\numberline {4}Exercise 3}{2}}
\@writefile{toc}{\contentsline {section}{\numberline {5}Exercise 4}{2}}
\@writefile{toc}{\contentsline {subsection}{\numberline {5.1}a}{2}}
\@writefile{toc}{\contentsline {subsection}{\numberline {5.2}b}{2}}
\@writefile{toc}{\contentsline {subsection}{\numberline {5.3}c}{2}}
\@writefile{toc}{\contentsline {subsection}{\numberline {5.4}d}{2}}
\@writefile{toc}{\contentsline {section}{\numberline {6}Exercise 5}{3}}
\@writefile{toc}{\contentsline {section}{\numberline {7}Exercise 6}{3}}
\@writefile{toc}{\contentsline {subsection}{\numberline {7.1}a}{3}}
\@writefile{toc}{\contentsline {subsection}{\numberline {7.2}b}{3}}
\@writefile{toc}{\contentsline {subsection}{\numberline {7.3}c}{3}}
\@writefile{toc}{\contentsline {subsection}{\numberline {7.4}d}{3}}
\@writefile{toc}{\contentsline {subsection}{\numberline {7.5}e}{3}}
\@writefile{toc}{\contentsline {subsection}{\numberline {7.6}f}{3}}
\@writefile{toc}{\contentsline {subsection}{\numberline {7.7}g}{3}}
\@writefile{toc}{\contentsline {subsection}{\numberline {7.8}h}{4}}
\@writefile{toc}{\contentsline {section}{\numberline {8}Exercise 7}{4}}
