\relax 
\@writefile{toc}{\contentsline {section}{\numberline {1}Exercise 1}{1}}
\@writefile{toc}{\contentsline {section}{\numberline {2}Exercise 2}{1}}
\@writefile{toc}{\contentsline {section}{\numberline {3}Exercise 3}{1}}
\@writefile{toc}{\contentsline {subsection}{\numberline {3.1}a}{1}}
\@writefile{lol}{\contentsline {lstlisting}{latex\textendash one}{1}}
\@writefile{toc}{\contentsline {subsection}{\numberline {3.2}b}{1}}
\@writefile{lol}{\contentsline {lstlisting}{latex\textendash name}{1}}
\@writefile{toc}{\contentsline {subsection}{\numberline {3.3}c}{2}}
\@writefile{lol}{\contentsline {lstlisting}{latex\textendash read}{2}}
\@writefile{toc}{\contentsline {subsection}{\numberline {3.4}d}{2}}
\@writefile{lol}{\contentsline {lstlisting}{latex\textendash names}{2}}
\@writefile{toc}{\contentsline {subsection}{\numberline {3.5}e}{3}}
\@writefile{lol}{\contentsline {lstlisting}{latex\textendash step}{3}}
\@writefile{toc}{\contentsline {subsection}{\numberline {3.6}f}{3}}
\@writefile{lol}{\contentsline {lstlisting}{latex\textendash need}{3}}
\@writefile{toc}{\contentsline {subsection}{\numberline {3.7}g}{4}}
\@writefile{lol}{\contentsline {lstlisting}{latex\textendash need\textendash opt}{4}}
\@writefile{toc}{\contentsline {subsection}{\numberline {3.8}h}{6}}
\@writefile{lol}{\contentsline {lstlisting}{latex\textendash bail}{6}}
\@writefile{toc}{\contentsline {subsection}{\numberline {3.9}i}{7}}
\@writefile{lol}{\contentsline {lstlisting}{latex\textendash stats}{7}}
\@writefile{toc}{\contentsline {subsection}{\numberline {3.10}j}{9}}
\@writefile{lol}{\contentsline {lstlisting}{tex2pdf}{9}}
\@writefile{toc}{\contentsline {section}{\numberline {4}Exercise 4}{11}}
\@writefile{toc}{\contentsline {subsection}{\numberline {4.1}a}{11}}
\@writefile{lol}{\contentsline {lstlisting}{mulgrep\textendash 1}{11}}
\@writefile{toc}{\contentsline {subsection}{\numberline {4.2}b}{11}}
\@writefile{lol}{\contentsline {lstlisting}{mulgrep\textendash 2}{11}}
\@writefile{toc}{\contentsline {subsection}{\numberline {4.3}c}{11}}
\@writefile{lol}{\contentsline {lstlisting}{mulgrep\textendash 3}{11}}
\@writefile{toc}{\contentsline {subsection}{\numberline {4.4}d}{11}}
\@writefile{lol}{\contentsline {lstlisting}{mulgrep\textendash 4}{11}}
\@writefile{toc}{\contentsline {subsection}{\numberline {4.5}e}{12}}
\@writefile{lol}{\contentsline {lstlisting}{mulgrep}{12}}
