\relax 
\@writefile{toc}{\contentsline {section}{\numberline {1}Exercise 1}{1}}
\@writefile{toc}{\contentsline {section}{\numberline {2}Exercise 2}{1}}
\@writefile{toc}{\contentsline {subsection}{\numberline {2.1}a}{1}}
\@writefile{toc}{\contentsline {subsection}{\numberline {2.2}b}{1}}
\@writefile{toc}{\contentsline {subsection}{\numberline {2.3}c}{1}}
\@writefile{toc}{\contentsline {section}{\numberline {3}Exercise 3}{1}}
\@writefile{lol}{\contentsline {lstlisting}{object.sed}{1}}
\@writefile{toc}{\contentsline {section}{\numberline {4}Exercise 4}{2}}
\@writefile{lol}{\contentsline {lstlisting}{item2li.sed}{2}}
\@writefile{toc}{\contentsline {section}{\numberline {5}Exercise 5}{2}}
\@writefile{toc}{\contentsline {subsection}{\numberline {5.1}a}{2}}
\@writefile{toc}{\contentsline {subsection}{\numberline {5.2}b}{2}}
\@writefile{toc}{\contentsline {subsection}{\numberline {5.3}c}{2}}
\@writefile{toc}{\contentsline {subsection}{\numberline {5.4}d}{2}}
\@writefile{lol}{\contentsline {lstlisting}{collect.sed}{2}}
\@writefile{toc}{\contentsline {subsection}{\numberline {5.5}e}{2}}
\@writefile{lol}{\contentsline {lstlisting}{024space.sed}{2}}
\@writefile{toc}{\contentsline {subsection}{\numberline {5.6}f}{3}}
\@writefile{lol}{\contentsline {lstlisting}{section2yam1.sed}{3}}
