\relax 
\@writefile{toc}{\contentsline {section}{\numberline {1}Exercise 1}{1}}
\@writefile{toc}{\contentsline {section}{\numberline {2}Problem 2}{1}}
\@writefile{toc}{\contentsline {subsection}{\numberline {2.1}a}{1}}
\@writefile{toc}{\contentsline {subsection}{\numberline {2.2}b}{1}}
\@writefile{toc}{\contentsline {subsection}{\numberline {2.3}c}{1}}
\@writefile{toc}{\contentsline {subsection}{\numberline {2.4}d}{1}}
\@writefile{toc}{\contentsline {subsection}{\numberline {2.5}e}{1}}
\@writefile{toc}{\contentsline {subsection}{\numberline {2.6}f}{2}}
\@writefile{toc}{\contentsline {subsection}{\numberline {2.7}g}{2}}
\@writefile{toc}{\contentsline {subsection}{\numberline {2.8}h}{2}}
\@writefile{toc}{\contentsline {subsection}{\numberline {2.9}i}{2}}
\@writefile{toc}{\contentsline {subsection}{\numberline {2.10}j}{2}}
\@writefile{toc}{\contentsline {subsection}{\numberline {2.11}k}{2}}
\@writefile{toc}{\contentsline {subsection}{\numberline {2.12}l}{2}}
\@writefile{toc}{\contentsline {subsection}{\numberline {2.13}m}{2}}
\@writefile{toc}{\contentsline {section}{\numberline {3}Exercise 3}{2}}
\@writefile{toc}{\contentsline {subsection}{\numberline {3.1}a}{2}}
\@writefile{toc}{\contentsline {subsection}{\numberline {3.2}b}{3}}
\@writefile{toc}{\contentsline {subsection}{\numberline {3.3}c}{3}}
\@writefile{toc}{\contentsline {subsection}{\numberline {3.4}d}{3}}
\@writefile{toc}{\contentsline {subsection}{\numberline {3.5}e}{3}}
\@writefile{toc}{\contentsline {subsection}{\numberline {3.6}f}{3}}
\@writefile{toc}{\contentsline {subsection}{\numberline {3.7}g}{3}}
