{
   "abstract" : "Capture STDOUT and STDERR from Perl, XS or external programs",
   "author" : [
      "David Golden <dagolden@cpan.org>"
   ],
   "dynamic_config" : 0,
   "generated_by" : "Dist::Zilla version 5.031, CPAN::Meta::Converter version 2.143240, CPAN::Meta::Converter version 2.150001",
   "license" : [
      "apache_2_0"
   ],
   "meta-spec" : {
      "url" : "http://search.cpan.org/perldoc?CPAN::Meta::Spec",
      "version" : "2"
   },
   "name" : "Capture-Tiny",
   "no_index" : {
      "directory" : [
         "t",
         "xt",
         "examples",
         "corpus"
      ],
      "package" : [
         "DB"
      ]
   },
   "prereqs" : {
      "build" : {
         "requires" : {
            "ExtUtils::MakeMaker" : "0"
         }
      },
      "configure" : {
         "requires" : {
            "ExtUtils::MakeMaker" : "6.17"
         }
      },
      "develop" : {
         "requires" : {
            "Dist::Zilla" : "5",
            "Dist::Zilla::Plugin::OSPrereqs" : "0",
            "Dist::Zilla::Plugin::Prereqs" : "0",
            "Dist::Zilla::Plugin::RemovePrereqs" : "0",
            "Dist::Zilla::PluginBundle::DAGOLDEN" : "0.072",
            "File::Spec" : "0",
            "File::Temp" : "0",
            "IO::Handle" : "0",
            "IPC::Open3" : "0",
            "Pod::Coverage::TrustPod" : "0",
            "Test::CPAN::Meta" : "0",
            "Test::More" : "0",
            "Test::Pod" : "1.41",
            "Test::Pod::Coverage" : "1.08",
            "Test::Spelling" : "0.12",
            "Test::Version" : "1"
         }
      },
      "runtime" : {
         "requires" : {
            "Carp" : "0",
            "Exporter" : "0",
            "File::Spec" : "0",
            "File::Temp" : "0",
            "IO::Handle" : "0",
            "Scalar::Util" : "0",
            "perl" : "5.006",
            "strict" : "0",
            "warnings" : "0"
         }
      },
      "test" : {
         "recommends" : {
            "CPAN::Meta" : "2.120900"
         },
         "requires" : {
            "ExtUtils::MakeMaker" : "0",
            "File::Spec" : "0",
            "IO::File" : "0",
            "Test::More" : "0.62",
            "lib" : "0"
         }
      }
   },
   "provides" : {
      "Capture::Tiny" : {
         "file" : "lib/Capture/Tiny.pm",
         "version" : "0.28"
      }
   },
   "release_status" : "stable",
   "resources" : {
      "bugtracker" : {
         "web" : "https://github.com/dagolden/Capture-Tiny/issues"
      },
      "homepage" : "https://github.com/dagolden/Capture-Tiny",
      "repository" : {
         "type" : "git",
         "url" : "https://github.com/dagolden/Capture-Tiny.git",
         "web" : "https://github.com/dagolden/Capture-Tiny"
      }
   },
   "version" : "0.28",
   "x_authority" : "cpan:DAGOLDEN",
   "x_contributors" : [
      "Dagfinn Ilmari Mannsåker <ilmari@ilmari.org>",
      "David E. Wheeler <david@justatheory.com>"
   ]
}
