\relax 
\@writefile{toc}{\contentsline {section}{\numberline {1}Exercise 1}{1}}
\@writefile{toc}{\contentsline {section}{\numberline {2}Exercise 2}{1}}
\@writefile{toc}{\contentsline {subsection}{\numberline {2.1}a}{1}}
\@writefile{toc}{\contentsline {subsection}{\numberline {2.2}b}{1}}
\@writefile{toc}{\contentsline {subsection}{\numberline {2.3}c}{1}}
\@writefile{toc}{\contentsline {subsection}{\numberline {2.4}d}{1}}
\@writefile{toc}{\contentsline {subsection}{\numberline {2.5}e}{1}}
\@writefile{toc}{\contentsline {subsection}{\numberline {2.6}f}{2}}
\@writefile{toc}{\contentsline {subsection}{\numberline {2.7}g}{2}}
\@writefile{toc}{\contentsline {section}{\numberline {3}Exercise 3}{2}}
\@writefile{toc}{\contentsline {section}{\numberline {4}Exercise 4}{2}}
\@writefile{lol}{\contentsline {lstlisting}{file\textendash sum}{2}}
\@writefile{toc}{\contentsline {section}{\numberline {5}Exercise 5}{3}}
\@writefile{toc}{\contentsline {subsection}{\numberline {5.1}a}{3}}
\@writefile{lol}{\contentsline {lstlisting}{look\textendash mark}{3}}
\@writefile{toc}{\contentsline {subsection}{\numberline {5.2}b}{4}}
\@writefile{lol}{\contentsline {lstlisting}{look\textendash mark\textendash rel}{4}}
\@writefile{toc}{\contentsline {section}{\numberline {6}Exercise 6}{4}}
\@writefile{lol}{\contentsline {lstlisting}{troll\textendash num.awk}{4}}
