{
   "abstract" : "AppConfig is a bundle of Perl5 modules for reading configuration files and parsing command line arguments.",
   "author" : [
      "Andy Wardley <abw@wardley.org>"
   ],
   "dynamic_config" : 0,
   "generated_by" : "ExtUtils::MakeMaker version 7.02, CPAN::Meta::Converter version 2.143240, CPAN::Meta::Converter version 2.150001",
   "license" : [
      "perl_5"
   ],
   "meta-spec" : {
      "url" : "http://search.cpan.org/perldoc?CPAN::Meta::Spec",
      "version" : "2"
   },
   "name" : "AppConfig",
   "no_index" : {
      "directory" : [
         "t",
         "inc"
      ]
   },
   "prereqs" : {
      "build" : {
         "requires" : {
            "ExtUtils::MakeMaker" : "0"
         }
      },
      "configure" : {
         "requires" : {
            "ExtUtils::MakeMaker" : "0"
         }
      },
      "runtime" : {
         "requires" : {
            "Test::More" : "0",
            "perl" : "5.008008"
         }
      },
      "test" : {
         "requires" : {
            "Test::Pod" : "1.0"
         }
      }
   },
   "release_status" : "stable",
   "resources" : {
      "repository" : {
         "type" : "git",
         "url" : "git://github.com/neilbowers/AppConfig.git",
         "web" : "https://github.com/neilbowers/AppConfig"
      }
   },
   "version" : "1.71"
}
